<svg width="367" height="366" viewBox="0 0 367 366" fill="none" xmlns="http://www.w3.org/2000/svg">
<path opacity="0.4" d="M183.5 365C284.292 365 366 283.516 366 183C366 82.4842 284.292 1 183.5 1C82.708 1 1 82.4842 1 183" stroke="#5C9DD5"/>
<path d="M183.5 14C89.8877 14 14 89.6639 14 183C14 276.336 89.8877 352 183.5 352C277.112 352 353 276.336 353 183" stroke="#5C9DD5" stroke-width="3"/>
</svg>
