<?xml version="1.0" encoding="UTF-8"?>
<svg width="127px" height="62px" viewBox="0 0 127 62" version="1.1" xmlns="http://www.w3.org/2000/svg" xmlns:xlink="http://www.w3.org/1999/xlink">
    <!-- Generator: Sketch 59 (86127) - https://sketch.com -->
    <title>Logo Envol Immo</title>
    <desc>Created with Sketch.</desc>
    <g id="Page-1" stroke="none" stroke-width="1" fill="none" fill-rule="evenodd">
        <g id="Envol-page-projet-details" transform="translate(-148.000000, -20.000000)">
            <g id="Logo-Envol-Immo" transform="translate(148.000000, 20.000000)">
                <path d="M7.00280059,61.8441254 C7.00097695,61.8475089 6.99902305,61.8508923 6.99719941,61.8528443 C6.99732967,61.8514128 7.00280059,61.8441254 7.00280059,61.8441254" id="Fill-1" fill="#000000"></path>
                <path d="M10.0267619,52.813414 C10.0039664,52.8368379 9.98130107,52.8601318 9.9586358,52.8835557 C9.98599044,52.8650768 10.0133451,52.8467281 10.041351,52.8286396 C10.0418721,52.8288998 10.0267619,52.813414 10.0267619,52.813414" id="Fill-3" fill="#000000"></path>
                <path d="M127,49.5446585 C126.973425,49.6051864 126.926295,49.6649603 126.924092,49.7263931 C126.917045,49.925522 126.85993,50.1105243 126.779716,50.2852208 C126.599808,50.6769432 126.417746,51.0683639 126.216842,51.4489257 C126.058126,51.7496048 125.795997,51.9142468 125.459134,51.9301329 C125.232732,51.9407906 125.097361,51.8421562 125.051405,51.614171 C125.025075,51.483865 125.026934,51.340991 125.04749,51.2089757 C125.077197,51.0182926 125.133137,50.8317821 125.182078,50.6445678 C125.225244,50.4793727 125.279814,50.3170935 125.318526,50.1509433 C125.346814,50.029435 125.369425,49.9040054 125.373732,49.7796316 C125.381954,49.5381231 125.263272,49.4096772 125.02669,49.4314451 C124.84086,49.4485377 124.653072,49.493632 124.476443,49.5567741 C124.023786,49.7187014 123.598536,49.943972 123.193449,50.2058407 C122.553983,50.6192305 121.916034,51.0353852 121.284839,51.4618457 C120.997505,51.6559976 120.725196,51.8742803 120.450538,52.087586 C120.187528,52.2918426 119.997978,52.5520524 119.885952,52.8752033 C119.591717,53.7241026 119.282017,54.5673714 118.994243,55.4185832 C118.538845,56.7653801 118.095926,58.1166512 117.648702,59.4663137 C117.551602,59.7592508 117.437471,60.0449487 117.266666,60.3001313 C117.173237,60.4397879 117.060771,60.5687366 116.942529,60.6873291 C116.808234,60.8221093 116.635227,60.861372 116.449005,60.8449832 C116.198475,60.8229639 116.036969,60.6727501 116.010785,60.4152047 C115.988762,60.1987319 115.998648,59.9828623 116.057377,59.7702604 C116.266552,59.0133093 116.460115,58.2514817 116.682308,57.4986529 C117.461991,54.8570911 118.285916,52.2299071 119.147086,49.6150901 C119.193287,49.4745788 119.238704,49.333414 119.293763,49.196472 C119.366294,49.0160445 119.461191,48.8483358 119.602729,48.7135053 C119.900487,48.4296172 120.312573,48.4505305 120.57754,48.7675984 C120.746779,48.9700955 120.811186,49.2057221 120.755246,49.4693002 C120.689077,49.7812905 120.617574,50.0921246 120.551748,50.4042155 C120.53829,50.4681117 120.539954,50.5353762 120.532368,50.6292347 C120.606856,50.618225 120.663432,50.6245594 120.703858,50.6012832 C120.839131,50.52316 120.973181,50.4410149 121.099597,50.3486646 C121.760793,49.8657984 122.418514,49.3777542 123.079514,48.8944859 C123.423669,48.6429229 123.77399,48.4014144 124.161409,48.2217912 C124.507472,48.0613218 124.863666,47.937501 125.239486,47.8771741 C125.598617,47.8195117 125.950798,47.8428381 126.283305,48.0016988 C126.647476,48.1756412 126.903537,48.4377111 126.924337,48.8820686 C126.927273,48.9442053 126.973719,49.0041299 127,49.06506 L127,49.5446585 Z" id="Fill-5" fill="#2F5996"></path>
                <path d="M11.4114712,0.848484848 C11.5596518,1.06647258 12.5970637,3.38799098 12.7127096,3.75445467 C12.6332462,3.86245482 12.4999034,3.86710833 12.3874616,3.90666314 C11.5556589,4.19959172 10.7189759,4.47933537 9.88973647,4.77905032 C8.90270396,5.1358192 7.92124176,5.5084391 6.97152551,5.95449715 C6.59856002,6.12968231 6.23594647,6.32697163 5.87451599,6.52464873 C5.74876461,6.59348186 5.63666792,6.68892723 5.52649374,6.78165806 C5.46837501,6.83056836 5.42105187,6.89571746 5.38102438,6.96076961 C5.32009584,7.05975359 5.35105306,7.16494224 5.46305115,7.20323673 C5.59925306,7.24986875 5.74137037,7.29092625 5.88407921,7.30600168 C6.35114873,7.35534824 6.81890839,7.40614903 7.28780183,7.42999826 C8.03669051,7.46814732 8.78651579,7.49044537 9.53614389,7.50993194 C13.431627,7.61138809 17.3278988,7.58244909 21.2239734,7.56727672 C23.9332231,7.55675785 26.6423743,7.52011148 29.3515254,7.49073622 C30.8739995,7.47425505 32.396375,7.44982413 33.9187506,7.42704134 C35.3403673,7.40580971 36.7619839,7.38288149 38.1836006,7.35922617 C39.3924604,7.33906097 40.6013201,7.31729613 41.8101798,7.29533739 C43.0189903,7.27333018 44.22785,7.25064433 45.4366604,7.22727985 C46.4999522,7.20667838 47.5631947,7.18510744 48.6264865,7.1633426 C49.7009682,7.14143233 50.7754007,7.11932818 51.8498331,7.09630301 C52.7451771,7.07705882 53.6404717,7.05660278 54.5357663,7.03629216 C55.5318198,7.01375173 56.5278733,6.99043572 57.5239268,6.96833156 C57.6569739,6.96537465 57.7901195,6.96794377 57.9094625,6.96794377 C58.0245662,7.0881109 57.996961,7.21394949 57.9974047,7.33077191 C58,7.93630953 57.9984892,8.54179868 57.9984892,9.14738478 C57.9984892,9.40061313 58.0007567,9.65384148 57.9970596,9.90702136 C57.9958272,9.9928204 57.9793627,10.0784255 57.9688629,10.1729499 C57.8772236,10.1884616 57.8020981,10.2091115 57.7260854,10.2126986 C57.4130625,10.2273862 57.0998918,10.2406197 56.7866224,10.2476969 C55.3428723,10.280126 53.8990729,10.3097921 52.4552735,10.3414456 C51.5599789,10.3611261 50.6646843,10.3831818 49.7693896,10.4031531 C48.7061471,10.4269054 47.6429539,10.4497366 46.5797114,10.4726649 C45.6060378,10.4937026 44.6323642,10.5152251 43.6586414,10.534954 C42.4722601,10.5589971 41.2858296,10.581586 40.0994483,10.6044173 C39.0361566,10.6249218 37.9729141,10.6464927 36.909573,10.664719 C35.4432458,10.689877 33.9769186,10.7140655 32.5104928,10.7354911 C30.7754096,10.7608915 29.0402279,10.7771303 27.3052433,10.807572 C23.6555447,10.8716062 20.0056983,10.8450909 16.3559505,10.8300639 C15.046184,10.8246833 13.7365162,10.7933206 12.4269469,10.7670961 C11.6659809,10.7518268 10.905015,10.7296742 10.1444927,10.6988932 C9.31707719,10.6654461 8.48907014,10.6329685 7.66328136,10.5738302 C6.52515986,10.4922968 5.38940452,10.3822608 4.274846,10.1243789 C3.71825687,9.99563189 3.17359711,9.83178966 2.65787348,9.58471751 C2.32404817,9.4247532 2.01107462,9.23269908 1.74217074,8.97864667 C1.23063718,8.49531209 0.96735292,7.91144235 1.00323963,7.20561195 C1.01576055,6.95936387 1.08413263,6.72911221 1.18356051,6.50627708 C1.36146594,6.10777205 1.62706706,5.76913245 1.93151259,5.45744442 C2.39976519,4.97803623 2.93717859,4.58331217 3.50121126,4.22179283 C4.29973994,3.71000399 5.14278195,3.27805188 6.00440815,2.87969227 C7.66732354,2.11094257 9.38411831,1.47830796 11.1297999,0.918917619 C11.223411,0.888912192 11.321015,0.870831378 11.4114712,0.848484848" id="Fill-7" fill="#2F5996"></path>
                <path d="M8.04586778,17.8484848 C8.59077276,18.8194125 9.11019747,19.76235 9.62682376,20.7019021 C9.58195096,20.8319345 9.45896808,20.8491958 9.36612951,20.8997401 C8.59833339,21.3176367 7.82459678,21.725329 7.06141559,22.150998 C6.57817387,22.4205517 6.113981,22.7217672 5.68282904,23.066756 C5.53691881,23.1834848 5.39449432,23.3070799 5.2680257,23.4429297 C5.18024391,23.5373427 5.11077454,23.6527363 5.05451171,23.768559 C4.99240658,23.896398 5.04159973,24.0009198 5.1793602,24.0572338 C5.2709223,24.0946652 5.36901404,24.1249441 5.46705668,24.1381047 C5.82000036,24.1853589 6.17309134,24.2452015 6.52804791,24.2616999 C7.40743688,24.3025645 8.28766047,24.3323666 9.16788405,24.3476729 C10.3046779,24.3674615 11.4418645,24.381385 12.5788057,24.3751385 C14.2286419,24.3660787 15.878429,24.339519 17.528167,24.3149145 C18.4532634,24.3010863 19.3782616,24.2772923 20.3032107,24.2558348 C21.2170152,24.2346158 22.1308198,24.2116324 23.0445261,24.1875523 C23.7464859,24.1690989 24.4484457,24.1488812 25.1503072,24.1274237 C26.5763195,24.0837457 28.0023809,24.0403063 29.428295,23.9936243 C30.5979334,23.9552869 31.7674736,23.9135163 32.9369156,23.8712212 C34.1509849,23.8272572 35.3650051,23.7813859 36.5789272,23.7350854 C36.9575475,23.7206373 37.3359715,23.7007534 37.7145428,23.686353 C37.7912782,23.6834443 37.8686028,23.6939347 37.9611468,23.6991321 C37.9748934,23.7649351 37.9985571,23.8257313 37.9986553,23.8865276 C38.0007664,24.8610791 38,25.8356307 37.9989008,26.8101823 C37.9988517,26.8522867 37.9880999,26.894391 37.982994,26.9316317 C37.8749851,27.0274275 37.7484674,27.0157927 37.6286266,27.0224684 C37.2169653,27.045261 36.8052059,27.0671954 36.3933482,27.0860303 C35.7476513,27.1154986 35.1016107,27.1392925 34.4560119,27.1708112 C33.8216559,27.2018054 33.1875945,27.2394752 32.5534348,27.2740456 C32.4866657,27.2777172 32.4198474,27.2808166 32.3529801,27.2834869 C31.6291731,27.3126691 30.9052678,27.3404207 30.181559,27.3710811 C29.1571926,27.4144729 28.1330226,27.4613933 27.1086562,27.5041176 C26.0286161,27.5491783 24.9485269,27.5946205 23.8681923,27.6334824 C22.5315819,27.6814995 21.1949225,27.7278 19.8579685,27.7658036 C18.6880846,27.7991342 17.5179062,27.8350398 16.3476787,27.8428121 C14.5419168,27.8547807 12.7359586,27.8445287 10.9300986,27.8417154 C10.618002,27.8412386 10.305758,27.8349444 9.9938086,27.8245018 C9.24756517,27.7995157 8.50014346,27.7885962 7.75556926,27.7390533 C6.55480467,27.6590883 5.35875319,27.5339673 4.19117679,27.2288418 C3.65167225,27.0878422 3.1277799,26.9070271 2.63683028,26.6444351 C2.30288634,26.4659088 1.98995505,26.2575327 1.73456306,25.9804926 C0.97854973,25.1605304 0.806962836,24.2310872 1.21582568,23.2072788 C1.40366301,22.7369782 1.71634883,22.3404915 2.06251741,21.9693245 C2.41511743,21.5913389 2.80115112,21.2472561 3.20800107,20.9257275 C4.59498286,19.8295358 6.07225028,18.863758 7.64677483,18.0395519 C7.76332627,17.9785649 7.88429625,17.9255411 8.04586778,17.8484848" id="Fill-9" fill="#2F5996"></path>
                <path d="M25,42.9909133 C24.8204353,43.0176113 24.6778328,43.0436725 24.534042,43.0591524 C24.2995401,43.0842828 24.0645431,43.1056902 23.8292985,43.1230807 C23.1122755,43.1761828 22.3951038,43.2275703 21.6778332,43.2778312 C20.826031,43.3375465 19.9744268,43.3997603 19.1221789,43.4526174 C18.5502341,43.4880352 17.9773484,43.5101774 17.4048094,43.5364345 C16.5516208,43.5756242 15.6984321,43.6135403 14.8451444,43.6510155 C14.6879351,43.6578737 14.5304782,43.6587555 14.3732194,43.664585 C13.2950357,43.7046075 12.2169016,43.7460996 11.1387179,43.7851914 C10.8579198,43.7953807 10.576775,43.798173 10.2958283,43.8051782 C9.6890251,43.8203152 9.08222185,43.8464254 8.47536909,43.8484848 C7.87980569,43.8502954 7.28424229,43.8242832 6.68862938,43.8168861 C5.9796772,43.8081664 5.27389397,43.7532518 4.57172532,43.6637522 C3.74586882,43.5585277 2.93130169,43.3991724 2.15758422,43.0784044 C1.81410041,42.9360476 1.48918463,42.7623881 1.19110584,42.5401332 C0.599503621,42.0990037 0.237105174,41.5161542 0.0866298525,40.8012843 C0.06147636,40.6817066 0.0298859503,40.5625698 0.0174577483,40.4416204 C0.00394022186,40.3098449 -0.00967633408,40.1733666 0.00948587373,40.0436486 C0.126241652,39.2528975 0.396047518,38.5171591 0.829697689,37.8397643 C1.13728331,37.3593471 1.47992537,36.9054808 1.85326658,36.4743447 C2.60732669,35.6036465 3.41827925,34.7860995 4.24666099,33.9852571 C4.29374952,33.939699 4.34890895,33.9023707 4.41624901,33.8484848 C5.23542101,34.6222863 6.02899389,35.4077958 6.83375711,36.1817932 C6.88876799,36.2346994 6.93461865,36.2969131 6.99844316,36.3705898 C6.90411757,36.4533781 6.82276483,36.5270549 6.73898588,36.5978903 C6.02924147,37.1977383 5.33019224,37.8090004 4.69600734,38.4886485 C4.43659957,38.7666997 4.18159861,39.0501396 3.99071926,39.3799703 C3.91387237,39.5126765 3.85168184,39.6600789 3.81692249,39.8086081 C3.77557767,39.9852069 3.83732256,40.0903823 4.00676204,40.1499018 C4.17511218,40.2090293 4.35113711,40.256106 4.52770671,40.2811384 C4.81652624,40.3219937 5.10797005,40.3488877 5.3992158,40.3674048 C7.42105154,40.4961431 9.44471933,40.4411305 11.4674959,40.4080152 C12.7822115,40.3865098 14.0964319,40.3300276 15.4105534,40.2814323 C16.4212979,40.2441041 17.4316959,40.1969295 18.4420443,40.1499507 C19.328804,40.1087035 20.2154646,40.0632924 21.1019767,40.0168036 C21.898669,39.9750665 22.6952127,39.9296554 23.4917565,39.8851261 C23.8844085,39.8631308 24.2768624,39.8380004 24.6696629,39.8177687 C24.7678011,39.812674 24.8717325,39.7862209 24.9753669,39.8687643 C24.9817048,39.8976178 24.9987379,39.9396978 24.9987874,39.9817288 C25.0002728,40.9703391 25,41.9589983 25,42.9909133" id="Fill-11" fill="#305996"></path>
                <path d="M16.4446644,52.5782842 C16.3876066,52.5416007 16.3394844,52.5145787 16.2957051,52.4817195 C16.0753611,52.3163668 15.9997333,52.0810689 16.0728152,51.8175412 C16.1276766,51.619732 16.2483816,51.4731488 16.4120172,51.3612363 C16.5243856,51.2844475 16.6395495,51.2081115 16.7625508,51.1517527 C16.9103619,51.0840719 16.9863891,50.9719582 17.0340621,50.8232112 C17.1977476,50.312812 17.3645281,49.8033185 17.5334551,49.2946301 C17.583674,49.1432665 17.6394339,48.9932615 17.7023323,48.8468293 C17.7706219,48.6878674 17.8705604,48.5489329 18.0062412,48.4396371 C18.4741352,48.062939 18.9644929,48.3757303 19.0598388,48.8137186 C19.1094586,49.0416697 19.0908886,49.2685641 19.0311352,49.4921878 C19.0016329,49.602339 18.9629454,49.7101252 18.9356395,49.8207293 C18.9228601,49.8725089 18.927253,49.9285155 18.9241081,49.9787855 C19.0429161,50.0241745 19.1164473,49.9581542 19.1936226,49.9209171 C20.0318183,49.5166435 20.8764036,49.1265601 21.7378616,48.7750222 C22.3152287,48.5393217 22.8956409,48.3111189 23.4756537,48.0820607 C23.7402262,47.9775454 24.0137343,47.9030209 24.2958285,47.8659852 C24.7396613,47.8076136 25.1551899,47.8938626 25.5274384,48.1458166 C25.6477441,48.2272349 25.7532236,48.3365307 25.8492185,48.4473864 C25.9554968,48.5702184 26.0161987,48.7192169 26.0040683,48.8885449 C25.9909894,49.0704026 25.9775112,49.2522604 25.9614372,49.4338665 C25.9483583,49.5816573 25.9292392,49.7289953 25.9171088,49.8768365 C25.9136145,49.920112 25.9249461,49.9646455 25.9316853,50.0303639 C26.0069636,50.0252312 26.0764513,50.0366036 26.1321114,50.0137581 C26.3418226,49.92766 26.5497865,49.836077 26.7534574,49.7362414 C27.3137521,49.461744 27.8703028,49.1793462 28.4307473,48.9049997 C29.1449433,48.5554242 29.8734661,48.2399157 30.6416749,48.0304321 C30.9032023,47.9590778 31.1712192,47.904279 31.4397853,47.8687025 C31.7744445,47.8243199 32.0952761,47.8979386 32.3877535,48.069531 C32.8448649,48.3376378 33.0932137,48.8949356 32.9674668,49.4227457 C32.8486089,49.9218732 32.7103323,50.4170757 32.5611733,50.908001 C31.7056058,53.7242797 30.8443474,56.5388476 29.9847363,59.3538684 C29.9314724,59.5283793 29.8791569,59.7033935 29.8200524,59.8759419 C29.7095809,60.1987973 29.5141467,60.4602618 29.238592,60.6585743 C29.0790497,60.7734556 28.904981,60.8488858 28.7026579,60.8484848 C28.5422172,60.8480807 28.4179679,60.7843248 28.3235205,60.6571653 C28.2119009,60.5069087 28.1526965,60.3371279 28.1366724,60.1503388 C28.1089672,59.826628 28.1515983,59.5161515 28.2623693,59.2082916 C28.6253329,58.1993687 28.9826555,57.188282 29.333239,56.1749309 C29.9002229,54.5361985 30.4669072,52.8973152 30.9555677,51.2325169 C31.032693,50.969895 31.1033788,50.70521 31.1712192,50.4400218 C31.202269,50.3186491 31.2276281,50.1945088 31.2409066,50.0700163 C31.2739033,49.7614016 31.1024803,49.5304815 30.8013668,49.483583 C30.7027262,49.4682353 30.5971468,49.4736196 30.4980569,49.489873 C29.9937717,49.5727003 29.4993207,49.6984005 29.0243381,49.888863 C27.9282592,50.32821 26.8629306,50.8349359 25.826655,51.40265 C25.3458319,51.666077 25.3504744,51.6720651 25.1660224,52.2035989 C24.3546335,54.5421866 23.541697,56.8803215 22.730358,59.2189595 C22.6438977,59.4682465 22.54341,59.7091803 22.3805232,59.919469 C22.2678054,60.0649452 22.1391632,60.1912995 21.9797209,60.284996 C21.8235232,60.3767803 21.6555447,60.3925809 21.4864179,60.3499093 C21.2520466,60.2908835 21.1196605,60.119895 21.087163,59.8887736 C21.0669457,59.7450587 21.0744835,59.5900217 21.1052338,59.4479674 C21.1557023,59.214632 21.2257391,58.9843661 21.3039128,58.7585284 C22.2074529,56.1500223 23.1142377,53.5426736 24.0193752,50.9347211 C24.0716906,50.7839613 24.1262525,50.6330003 24.1638417,50.4782149 C24.3316206,49.7881217 23.8732113,49.5644981 23.4215412,49.6078239 C23.1379993,49.6349969 22.8681853,49.7241142 22.6057593,49.8354732 C22.0314872,50.0791746 21.4554679,50.3186994 20.8822941,50.5649169 C20.1528228,50.878463 19.4252484,51.1965882 18.6972247,51.5134051 C18.2946752,51.6885702 18.3706524,51.6419735 18.2537912,52.0127842 C17.5439881,54.2654247 16.7804219,56.4997487 16.0058734,58.7302986 C15.8375454,59.2150848 15.6510967,59.6934804 15.4693903,60.1734861 C15.4250619,60.2905313 15.3754421,60.4073751 15.3127933,60.5152619 C15.1375265,60.817033 14.7634309,60.9236618 14.4184883,60.7783367 C14.0926148,60.6411131 13.9379148,60.3514692 14.0230772,60.0030511 C14.0744442,59.7929134 14.1467274,59.5875057 14.2181121,59.3830038 C14.9697975,57.2288905 15.6668212,55.0564606 16.3622975,52.8834771 C16.3929979,52.7875665 16.4150622,52.6888883 16.4446644,52.5782842" id="Fill-13" fill="#2F5996"></path>
                <path d="M38.9435234,50.0115947 C39.1033466,49.9832166 39.2194318,49.9114665 39.3398109,49.8531003 C40.5760061,49.2539412 41.8373657,48.7137019 43.1167496,48.2161302 C43.4972095,48.0682021 43.8794669,47.9251043 44.287338,47.8673922 C44.6831261,47.8113406 45.0582936,47.880273 45.405301,48.0694096 C45.551843,48.1492606 45.6826074,48.2672509 45.8018881,48.3868009 C45.9516255,48.5368423 46.0281669,48.7271865 46.0136375,48.9458584 C46.0052993,49.0709934 45.9973606,49.1963298 45.9833804,49.3208611 C45.9642077,49.4909784 45.935099,49.660039 45.9182229,49.8303073 C45.8989004,50.0257837 45.9703989,50.0785145 46.1606788,50.0037454 C46.3293394,49.937379 46.4953537,49.8628112 46.6582225,49.7829099 C47.2592194,49.4880601 47.8575201,49.1875246 48.4586169,48.892876 C49.1011548,48.5777992 49.757573,48.2945723 50.4434994,48.0903913 C50.7465692,48.0001753 51.059475,47.9423626 51.3695848,47.8780088 C51.6564276,47.8184351 51.935831,47.8727257 52.2022029,47.9782376 C52.781231,48.2075262 53.1041726,48.801704 52.9696635,49.4165112 C52.8795414,49.8282947 52.7659028,50.2358516 52.6433767,50.639333 C51.7849452,53.4659669 50.9214709,56.291192 50.0593946,59.1167693 C49.9828533,59.3676936 49.9097071,59.6198757 49.8254267,59.8682339 C49.7038992,60.2263305 49.4841112,60.5097587 49.1621183,60.7089585 C49.0348989,60.7877025 48.8997407,60.8382698 48.7475068,60.8472763 C48.5450442,60.859352 48.3882667,60.7810608 48.2939506,60.606717 C48.2300913,60.4887771 48.1790138,60.3568997 48.154898,60.2252236 C48.0918375,59.8806115 48.1442631,59.5456601 48.2631444,59.2162937 C48.5341597,58.4653826 48.7993832,57.7123079 49.0629091,56.9585791 C49.680083,55.1931531 50.2936121,53.4264188 50.8386385,51.63664 C50.9615141,51.2331083 51.0684622,50.8246456 51.1769582,50.4168874 C51.2090627,50.2961801 51.2320301,50.1708941 51.240518,50.0463628 C51.2630361,49.715185 51.0778989,49.501444 50.747368,49.4748774 C50.6584443,49.4676822 50.5665247,49.4811668 50.477551,49.4954565 C49.9838019,49.5748546 49.5008375,49.7008451 49.0363468,49.8858558 C47.939354,50.3226965 46.8759634,50.8335515 45.8382864,51.3981437 C45.347533,51.665169 45.3520266,51.6709049 45.1708338,52.1931313 C44.3670248,54.5097656 43.5622672,56.8260979 42.7572599,59.142229 C42.7123237,59.2714397 42.6658397,59.4003988 42.6126152,59.5262886 C42.5136557,59.7604577 42.3751024,59.9693684 42.1818766,60.134756 C42.0965478,60.2078647 42.0024314,60.2820803 41.8993776,60.3204209 C41.4285959,60.4953181 41.0917241,60.1912605 41.0767953,59.798597 C41.0656611,59.5057095 41.1399556,59.2320928 41.2329736,58.9621996 C41.4596518,58.3044228 41.6945184,57.6495643 41.9227445,56.9923409 C42.6299406,54.9561159 43.3359385,52.9194381 44.0411874,50.8825087 C44.0896186,50.7424801 44.1352538,50.6006906 44.168956,50.4565865 C44.1920233,50.3579678 44.2083002,50.2523048 44.1991132,50.1525289 C44.1761957,49.9036172 44.0497252,49.7273111 43.8040739,49.6500765 C43.6495932,49.6016225 43.4920169,49.5794333 43.3346902,49.6205916 C43.1050162,49.6807188 42.8688515,49.7292734 42.6514601,49.8213008 C41.2936874,50.3961574 39.9416566,50.9848507 38.5840337,51.5600595 C38.4046883,51.6360865 38.3284465,51.7611713 38.2737741,51.9331502 C37.980091,52.8571473 37.6904521,53.7826035 37.379893,54.7008645 C36.8391605,56.299796 36.285846,57.89435 35.73348,59.4892059 C35.6365676,59.7692126 35.5204325,60.0424771 35.4091404,60.317251 C35.3750888,60.4013788 35.3360941,60.4858588 35.2849168,60.5600744 C35.1257926,60.7909227 34.8936721,60.8621697 34.628898,60.8312759 C34.3646231,60.8004324 34.1589151,60.6757501 34.047723,60.4192408 C33.985661,60.2759418 33.991303,60.1284666 34.0240066,59.9822492 C34.0463249,59.8825235 34.0842211,59.7861187 34.1176237,59.6890598 C34.8893283,57.4456851 35.6317245,55.1924486 36.3469093,52.930105 C36.3810109,52.8221276 36.4118172,52.7130935 36.447117,52.5945498 C36.4073735,52.5622974 36.3752191,52.5328124 36.3397694,52.5080571 C36.0084397,52.2765044 35.9426332,51.8728721 36.2048609,51.5615187 C36.3049688,51.4425724 36.4342353,51.3281043 36.5740868,51.2677758 C36.8866431,51.1329298 37.0289412,50.8956914 37.1190632,50.5804637 C37.2600131,50.0872191 37.4338164,49.6034339 37.5976838,49.1170323 C37.6375772,48.9986395 37.6821639,48.8792404 37.7442757,48.7718165 C37.8062378,48.6646944 37.880782,48.5586793 37.9712036,48.47591 C38.1558915,48.3068493 38.3695382,48.2164824 38.6259742,48.3075034 C38.8894502,48.4010403 39.0257068,48.6011457 39.0703434,48.8650011 C39.1047446,49.0685783 39.0965063,49.2747216 39.0362917,49.4758837 C39.0003428,49.5959872 38.9633453,49.7161913 38.9362338,49.8384584 C38.9253492,49.8873149 38.9396789,49.9418571 38.9435234,50.0115947" id="Fill-15" fill="#2F5996"></path>
                <path d="M82.1697998,52.4959129 C82.1985857,51.8977666 81.8745689,51.3717271 81.3588803,51.0785684 C81.2122929,50.9952735 81.0539204,50.9264197 80.893241,50.8736826 C80.3115555,50.6826958 79.7249552,50.701967 79.1476829,50.8855608 C78.1614904,51.1992229 77.1921482,51.5589189 76.2767169,52.0406987 C75.3935318,52.5054746 74.5314095,53.0075113 73.7002797,53.5582435 C73.4459709,53.7267556 73.2057542,53.916461 72.9647351,54.1035542 C72.7914681,54.2380583 72.6777789,54.4141605 72.6027049,54.6212642 C72.4197089,55.1268003 72.219311,55.6262741 72.0372678,56.1320567 C71.677043,57.1330744 71.3065376,58.1311349 71.0379362,59.1612812 C70.9900934,59.344875 70.9436047,59.531081 70.9234446,59.7189136 C70.8915494,60.0156209 70.9894916,60.0982751 71.2997172,60.0686537 C71.3336184,60.0654007 71.3668676,60.0560855 71.4007687,60.0519454 C71.7419367,60.0104951 72.0658531,59.903641 72.3884657,59.7944704 C73.5413555,59.4042165 74.6497125,58.9097699 75.7509482,58.3989601 C77.0006268,57.8192471 78.1805974,57.1255828 79.2843907,56.3080111 C79.8761062,55.8697516 80.449818,55.4101016 80.9536212,54.873564 C81.3807957,54.4186949 81.7482922,53.9229176 81.984196,53.3427611 C82.094776,53.0707957 82.1739121,52.7921767 82.1697998,52.4959129 M83.9993586,52.0164989 C84.0114948,52.6011405 83.8505145,53.1910559 83.5923943,53.7590385 C83.2354293,54.5447709 82.7214959,55.224832 82.1273732,55.8501354 C81.4077762,56.6075771 80.5882811,57.2433293 79.6909538,57.7854363 C78.3608352,58.5890105 76.9760033,59.2911522 75.5636393,59.9422327 C74.5229843,60.4219917 73.4756595,60.8879997 72.3828991,61.2429642 C71.7893782,61.4357255 71.1873319,61.6038925 70.5856366,61.7710245 C70.2877478,61.853728 69.9794781,61.8691548 69.6714591,61.8223322 C69.5935767,61.810454 69.5150424,61.791725 69.4416735,61.7638286 C69.0801448,61.6264166 68.9670574,61.4401613 69.0079293,61.065827 C69.0824015,60.3835972 69.2720173,59.7268488 69.4854541,59.0782327 C69.8038541,58.1105822 70.1510901,57.1521484 70.4749564,56.1861738 C71.6851673,52.5766942 72.8908145,48.965736 74.0982671,45.3553693 C74.258094,44.8775324 74.4177203,44.399597 74.5790015,43.922253 C74.6738344,43.6415639 74.8241329,43.3936506 75.0443399,43.1897998 C75.2041166,43.0418404 75.3886672,42.9394715 75.5999476,42.8733777 C75.8772751,42.7865834 76.2295762,42.9262133 76.2679908,43.3008433 C76.2912603,43.5271196 76.2781211,43.7492066 76.2121242,43.9649848 C76.1303803,44.232465 76.0373025,44.4966923 75.9445257,44.7608702 C75.2877662,46.6310138 74.6259415,48.4994816 73.974899,50.3715966 C73.8168776,50.8259236 73.6900993,51.2908966 73.5554475,51.7528137 C73.5211953,51.8701167 73.5057994,51.9937776 73.4930614,52.1157135 C73.4836834,52.2052185 73.5692387,52.2574627 73.6570005,52.2179346 C73.7497774,52.1761885 73.8409995,52.1292674 73.9275076,52.0760375 C74.1687274,51.9277331 74.4076903,51.7758307 74.646553,51.6238791 C75.5647426,51.0398289 76.5034935,50.4921032 77.5060849,50.0571459 C78.2788907,49.7217976 79.0737623,49.4562396 79.9103584,49.3211441 C80.7071859,49.1924559 81.4976443,49.2008347 82.2760669,49.4292304 C82.650484,49.5391402 82.9941093,49.7099688 83.2838237,49.9755268 C83.5486137,50.2182649 83.7253912,50.5126065 83.8351186,50.8494828 C83.9543242,51.2152904 84.0038721,51.5905119 83.9993586,52.0164989" id="Fill-17" fill="#2F5996"></path>
                <path d="M105.503052,52.3957575 C105.637995,52.4119825 105.701453,52.4288796 105.763865,52.4257114 C106.350843,52.3959015 106.937671,52.3649875 107.5243,52.3296092 C107.862579,52.3091598 108.200858,52.2852063 108.538189,52.2533802 C109.066444,52.2034569 109.59445,52.1496934 110.121609,52.0898815 C110.693632,52.0248853 111.266951,51.9651694 111.827559,51.8304246 C112.389861,51.6951518 112.928086,51.5035233 113.415515,51.1939991 C113.587346,51.08484 113.740733,50.9581597 113.85105,50.7888527 C114.016201,50.5354921 114.027716,50.2713309 113.869195,50.0170583 C113.789436,49.889034 113.680465,49.7708983 113.562321,49.6734519 C113.317012,49.4711187 113.025891,49.3578313 112.704312,49.3122283 C112.321268,49.2578408 111.941016,49.2588008 111.555779,49.3021477 C110.473447,49.4236916 109.461252,49.7343679 108.533952,50.2921163 C107.564329,50.8753543 106.644656,51.5267088 105.735151,52.1919362 C105.673338,52.2371551 105.61965,52.2927428 105.503052,52.3957575 M105.685751,60.8484848 C104.808748,60.8190109 103.945953,60.7182044 103.116058,60.436906 C102.840092,60.3433479 102.569459,60.2249242 102.31403,60.0873472 C101.594303,59.6997699 101.20109,59.0917143 101.056526,58.3170397 C100.926818,57.6221464 101.034792,56.9497665 101.233691,56.2845391 C101.483188,55.4500047 101.892253,54.6868989 102.378784,53.9601795 C102.803502,53.3258181 103.296314,52.7435402 103.841917,52.2023049 C105.031326,51.0222439 106.352039,50.0007852 107.832669,49.1791637 C108.951242,48.5584832 110.155806,48.1614013 111.430757,47.9631483 C111.934536,47.8848072 112.440608,47.8338279 112.951316,47.8522611 C113.415913,47.8689662 113.876024,47.9248898 114.325368,48.0440336 C114.666638,48.1344715 114.985575,48.2727685 115.263585,48.4875825 C115.690596,48.8174601 115.936255,49.2425278 115.988048,49.7706102 C116.040839,50.3088213 115.916763,50.809638 115.655153,51.2826129 C115.514229,51.5374135 115.308649,51.7389786 115.076799,51.9171663 C114.701931,52.205281 114.279407,52.4137586 113.839834,52.5913222 C113.001515,52.9300323 112.127204,53.1493586 111.235297,53.308249 C110.633813,53.415344 110.027044,53.476836 109.416587,53.5137984 C108.400305,53.5752424 107.384721,53.6477751 106.368689,53.7131074 C105.713866,53.7552062 105.058993,53.7968729 104.403621,53.829659 C104.244801,53.8376275 104.123068,53.8840466 104.021076,54.0017022 C103.515503,54.5851803 103.114264,55.2278462 102.875634,55.9530295 C102.676436,56.558445 102.662677,57.1743732 102.859383,57.7878532 C102.950558,58.0723678 103.089389,58.3324007 103.285298,58.5628158 C103.535642,58.857219 103.845307,59.0663206 104.230095,59.1687113 C104.492802,59.2386038 104.758151,59.2849749 105.031127,59.2979837 C106.287584,59.3579396 107.51099,59.1655431 108.721885,58.8641314 C109.755763,58.6068346 110.683513,58.1382281 111.548202,57.5491816 C111.907717,57.3042697 112.244699,57.0280116 112.586318,56.7592901 C112.788308,56.6004477 112.987158,56.4394932 113.224591,56.3302861 C113.390141,56.2541052 113.560028,56.2009657 113.747363,56.2156066 C113.978615,56.2337518 114.124624,56.3637923 114.149698,56.5831186 C114.169887,56.7602502 114.142769,56.9308053 114.061365,57.0921918 C113.946063,57.3205907 113.793125,57.5233079 113.593777,57.6885347 C113.3708,57.8732028 113.143685,58.0540786 112.909193,58.2248737 C112.357908,58.6262759 111.77741,58.9858673 111.178867,59.3186251 C110.500066,59.6959777 109.788913,59.9992615 109.035538,60.2121553 C108.199611,60.4483307 107.363336,60.6831621 106.496902,60.7920332 C106.228562,60.8257314 105.956284,60.8304837 105.685751,60.8484848" id="Fill-19" fill="#2F5996"></path>
                <path d="M58.1619349,60.2016489 C58.8257484,60.1784321 59.489128,60.0390805 60.1375601,59.8141908 C61.6532364,59.2886624 63.0147606,58.4603939 64.2755097,57.4333738 C64.9664698,56.8704833 65.5760384,56.2222598 66.1026725,55.485987 C66.5688416,54.8342272 66.9647574,54.1400315 67.2245545,53.3649104 C67.3837213,52.890018 67.4777941,52.4043629 67.4648717,51.8957986 C67.4398467,50.9165445 66.8559782,50.0361537 65.992061,49.7023042 C65.5325942,49.5247705 65.0560583,49.4667543 64.5698789,49.5103177 C63.9340317,49.5673089 63.3158321,49.7149632 62.7163892,49.9462593 C60.7920194,50.688836 59.1106188,51.8367574 57.6706444,53.3821308 C57.1523519,53.9384098 56.706145,54.556754 56.331879,55.2317305 C56.0191387,55.795851 55.7672975,56.3882108 55.63764,57.0319242 C55.5595273,57.4197923 55.5190244,57.8075066 55.5764517,58.2085462 C55.6640633,58.8206889 55.9464264,59.2915837 56.4092684,59.6542875 C56.925825,60.0591197 57.5173602,60.1877598 58.1619349,60.2016489 M68.9979064,52.0374053 C69.0184471,52.8068376 68.8393182,53.5347564 68.5709865,54.2412011 C68.2027477,55.2106151 67.6698453,56.0733755 67.04639,56.876736 C66.3869643,57.7264786 65.6181807,58.4490162 64.7797707,59.0920633 C63.673897,59.9402172 62.4974325,60.6500957 61.2213019,61.1689102 C60.3889192,61.5073723 59.5332955,61.7445622 58.644739,61.8251289 C57.9292843,61.889859 57.2228463,61.8248726 56.5401314,61.5693861 C55.8977747,61.3289161 55.3438494,60.9429955 54.8897347,60.4026043 C54.4170563,59.8402263 54.1465548,59.1810351 54.042742,58.4338971 C53.9190153,57.5438711 54.0766873,56.6958197 54.3512873,55.8651937 C54.7187064,54.7537631 55.3042144,53.7750214 56.0129669,52.876744 C57.0230802,51.5964924 58.2391797,50.5765449 59.5775593,49.714297 C60.6211358,49.0419342 61.7191018,48.4975454 62.9000506,48.1561108 C63.5677215,47.9630993 64.2464344,47.8433256 64.9409144,47.8486557 C65.392136,47.8520895 65.839259,47.9083632 66.2675771,48.0568375 C67.7366269,48.5661706 68.6341036,49.6276314 68.9486278,51.2394262 C68.96859,51.3417746 68.9907701,51.4451992 68.995833,51.5489826 C69.0037889,51.7113973 68.9979064,51.8745294 68.9979064,52.0374053" id="Fill-21" fill="#2F5996"></path>
                <path d="M57.1343648,41.2165348 C57.6638887,41.2077096 58.1798807,41.1128381 58.6883604,40.96912 C59.7206333,40.6772711 60.6835616,40.2100974 61.6025715,39.6376877 C62.6070585,39.01207 63.5524579,38.3009192 64.3613831,37.4014623 C65.0702883,36.6131932 65.6656415,35.7399042 66.0751605,34.7333128 C66.3119437,34.1511543 66.4678248,33.549293 66.4508258,32.9057169 C66.4248215,31.9236515 65.8445412,31.0452315 64.9795141,30.7081276 C64.5429796,30.537985 64.0880976,30.4779528 63.6244994,30.5118171 C62.9103452,30.5639477 62.2211359,30.7407092 61.5530671,31.0091609 C59.8218092,31.7048675 58.2890986,32.7405 56.9459302,34.0935337 C56.3230318,34.7210498 55.7853214,35.4252738 55.3471014,36.211901 C54.9531849,36.9190496 54.6500908,37.6652448 54.5643249,38.4911752 C54.4627638,39.4689818 54.7650874,40.2536592 55.5684266,40.7872789 C56.0491202,41.1065271 56.5809074,41.2069399 57.1343648,41.2165348 M57.1792462,42.8421249 C56.5497023,42.8679336 55.9354238,42.7737293 55.3524949,42.5131279 C54.4641122,42.1159404 53.7658495,41.4888348 53.3479032,40.5483301 C53.0360928,39.8466203 52.9462336,39.1045299 53.0292547,38.3338087 C53.1554235,37.162411 53.5801598,36.1123091 54.1615959,35.1248049 C54.735327,34.1503334 55.4390313,33.2928477 56.2484862,32.5344408 C57.682814,31.1904376 59.2813057,30.1342812 61.0790672,29.4316478 C61.8735456,29.1211223 62.6918131,28.9169614 63.5365664,28.861034 C64.344673,28.8075694 65.1347211,28.9186547 65.8638517,29.3158934 C67.0085691,29.9394075 67.7036534,30.9316321 67.9356692,32.2833317 C68.0872644,33.1670879 67.9571468,34.0225212 67.6895918,34.8607145 C67.3728695,35.8531444 66.8734432,36.7385425 66.2761638,37.5651399 C65.5699554,38.5425874 64.728573,39.3680559 63.7920824,40.0889042 C62.625117,40.9872323 61.3824021,41.7341459 60.0271465,42.2614031 C59.2742268,42.5543295 58.5006481,42.7526923 57.7033766,42.8393542 C57.5304001,42.8581335 57.3540527,42.8421249 57.1792462,42.8421249" id="Fill-23" fill="#2F5996"></path>
                <path d="M30.8767612,31.3988657 C31.0396333,31.3207656 31.1408525,31.2754506 31.2391667,31.2245889 C32.2969841,30.6776402 33.3669217,30.1564442 34.4710164,29.7049291 C35.3884492,29.3297809 36.3364831,29.0621009 37.3125138,28.8902013 C37.6161712,28.8367644 37.9221324,28.8255223 38.2248381,28.9113483 C38.7907336,29.0719068 39.0625377,29.4781069 38.9878629,30.0555132 C38.9329211,30.4802355 38.819131,30.8918832 38.7094979,31.3049177 C38.1149545,33.5443173 37.3696092,35.7384515 36.6718935,37.9468983 C36.4144634,38.7616261 36.1424089,39.5718472 35.8762642,40.3839502 C35.8377498,40.5013728 35.7998365,40.6194393 35.7533088,40.7338409 C35.5423062,41.2529569 35.0888486,41.5473802 34.5295141,41.5325228 C34.2426348,41.524896 34.0632851,41.3837512 33.9963233,41.1059186 C33.933919,40.8469054 33.9599124,40.5911113 34.0480096,40.3424982 C34.1531853,40.0457473 34.2640706,39.7508783 34.375056,39.4561579 C35.0730222,37.6033962 35.7795025,35.7536555 36.4099559,33.8768249 C36.6641806,33.1199417 36.9167526,32.3622166 37.0960522,31.5837407 C37.1487402,31.3547889 37.1892579,31.1202903 37.2042329,30.8863365 C37.2217622,30.6129116 37.0852341,30.4697858 36.8095735,30.4369015 C36.616501,30.4138726 36.4217756,30.4196174 36.2358149,30.482365 C35.9781344,30.5692805 35.7177994,30.6518874 35.4682325,30.7585632 C34.4149727,31.2087411 33.3641671,31.6647133 32.3147638,32.123657 C31.9095367,32.3009053 31.5089174,32.4887022 31.1091996,32.6778364 C30.9248416,32.765049 30.7494485,32.8706353 30.5667933,32.9613642 C30.3821348,33.0530836 30.2794132,33.1972495 30.2154563,33.3912865 C29.602983,35.2495455 28.9844997,37.1059224 28.3677192,38.9627947 C28.1656817,39.5710053 27.9608895,40.1782254 27.7626583,40.787575 C27.6849284,41.0264813 27.5737927,41.2449339 27.4094181,41.4358509 C27.2509033,41.619884 27.058582,41.7554326 26.8199332,41.818725 C26.3812002,41.9350581 26.0453892,41.7027386 26.0082271,41.2544922 C25.9809815,40.9258475 26.0222505,40.6032943 26.119513,40.2886155 C26.3618178,39.5044443 26.5950074,38.7173016 26.852137,37.9379343 C27.6801204,35.4282794 28.517219,32.921596 29.3511122,30.4138231 C29.3830656,30.317795 29.4130157,30.2206775 29.4522813,30.1275714 C29.5543017,29.885347 29.7014476,29.6735801 29.9050377,29.5029682 C30.0558397,29.3765816 30.2279773,29.2872889 30.4255073,29.2709953 C30.8182134,29.2385568 31.0775968,29.3919837 31.0969291,29.8378034 C31.1092497,30.1222227 31.0457435,30.3966381 31.0009187,30.6735296 C30.9776798,30.8173984 30.9348583,30.958048 30.9069116,31.1013224 C30.8923873,31.1756092 30.8909349,31.2523722 30.8767612,31.3988657" id="Fill-25" fill="#2F5996"></path>
                <path d="M43.8876088,35.4078129 C43.8754151,36.6539975 43.8586367,37.900182 43.8536617,39.1463666 C43.8520521,39.5501082 43.8808291,39.9539488 43.8973637,40.3576904 C43.8996561,40.4133687 43.9077527,40.469492 43.9202389,40.5237857 C43.935798,40.5914304 44.023202,40.6266372 44.0803658,40.5814419 C44.1757689,40.5060834 44.2737082,40.4293898 44.3519913,40.3370707 C44.6263482,40.0136818 44.9056313,39.6932597 45.1598931,39.3539981 C46.0442246,38.1740736 46.9193865,36.9870781 47.7970359,35.80211 C48.9017797,34.3105158 50.0858309,32.8850828 51.3053899,31.4898625 C51.6953425,31.043744 52.1365084,30.6487547 52.6048905,30.2884777 C52.7800887,30.1536828 52.9745529,30.0429197 53.1666271,29.9327499 C53.3268027,29.8408758 53.5070247,29.8359805 53.684808,29.8624351 C53.9097562,29.8958618 54.032473,30.0691765 53.9925267,30.2975761 C53.9652617,30.4536829 53.9037082,30.5988618 53.8085978,30.7261405 C53.6681759,30.9139434 53.5335581,31.1072351 53.3812839,31.2848023 C52.4147673,32.4116197 51.4442999,33.5349264 50.4744178,34.658777 C50.3504816,34.802423 50.2252773,34.9451789 50.0957809,35.0836329 C49.1264841,36.1203563 48.2616624,37.2445036 47.4065956,38.3771559 C46.5922068,39.4559101 45.7759158,40.5332302 44.954601,41.6065946 C44.7649167,41.8544272 44.5585516,42.0903428 44.3460896,42.3185446 C44.2333228,42.4396424 44.097632,42.5426423 43.9598439,42.6346647 C43.8503938,42.7077486 43.7271892,42.7722781 43.601107,42.8047653 C43.1907666,42.9105342 43.0196655,42.8270168 42.8311031,42.5255333 C42.7082887,42.3291265 42.6185923,42.1066112 42.5428942,41.8855793 C42.4009602,41.4710086 42.3282861,41.0379938 42.2761949,40.6035451 C42.1599164,39.6339223 42.1075813,38.6593053 42.0566606,37.6840455 C41.984523,36.3034123 41.9905711,34.922779 42.0234451,33.5422941 C42.0407601,32.8135318 42.0980702,32.0854618 42.1499663,31.3580345 C42.1650377,31.14709 42.2075203,30.9345632 42.2658547,30.7310853 C42.4340294,30.1443867 42.9509909,29.8214922 43.5449187,29.9162838 C43.7984976,29.9567815 43.9406267,30.0941476 43.9687209,30.3572102 C43.9876942,30.5350246 43.9858895,30.7159543 43.9821826,30.8953016 C43.9609657,31.9279209 43.933213,32.9604908 43.9144835,33.993209 C43.905948,34.4645953 43.9130203,34.9363277 43.9130203,35.4078624 C43.9045823,35.4078624 43.8960955,35.4078129 43.8876088,35.4078129" id="Fill-27" fill="#2F5996"></path>
                <path d="M76,23.6846301 C75.9635211,23.8348213 75.9305954,24.0145567 75.8763034,24.1867295 C75.5958898,25.0758776 75.3138654,25.9644711 75.0254453,26.8507454 C73.650144,31.0765683 72.2738478,35.3020383 70.894567,39.5263991 C70.7111777,40.0880406 70.5094068,40.6429767 70.3147422,41.2004841 C70.2811058,41.2968807 70.2445322,41.3925715 70.2023209,41.4849852 C70.0438983,41.8319022 69.7520673,41.937878 69.4233783,41.7709989 C69.1208404,41.6174298 68.9478263,41.2684961 69.0140568,40.9196129 C69.0437137,40.7633717 69.0934102,40.6108109 69.141496,40.4592584 C69.894477,38.085945 70.6583543,35.716564 71.3997284,33.3392676 C72.1140987,31.0488391 72.8020336,28.749134 73.5086343,26.4559326 C73.7799046,25.5756074 74.0687036,24.7014331 74.3542338,23.8261496 C74.4033145,23.6756055 74.4676026,23.5290443 74.539376,23.3889868 C74.6333683,23.2054198 74.7655925,23.0557328 74.9417334,22.9547482 C75.3762111,22.7054883 75.8243802,22.9089195 75.9536197,23.4166152 C75.9731857,23.4931981 75.9810973,23.5731085 76,23.6846301" id="Fill-29" fill="#2F5996"></path>
                <path d="M97,42.670378 C96.9612401,42.835716 96.932336,43.0045838 96.8820144,43.1658375 C96.6617272,43.8714615 96.4391182,44.5762787 96.2104915,45.2788268 C94.7893098,49.6456881 93.3675596,54.0123477 91.9423029,58.3776964 C91.7376524,59.0043574 91.5135271,59.6237575 91.2971728,60.2460317 C91.2674632,60.3318018 91.2303617,60.4145969 91.1970035,60.4989551 C91.0557998,60.8557001 90.7419297,60.9165106 90.4423221,60.7840485 C90.1286415,60.645334 89.9529898,60.303716 90.0109875,59.947929 C90.0365274,59.7911629 90.0832478,59.6371197 90.1313423,59.4857488 C90.703075,57.6870481 91.2855164,55.89223 91.8479618,54.0902014 C92.5017632,51.9953645 93.1345262,49.8930145 93.7840156,47.7965641 C94.2719738,46.2214404 94.7710671,44.6502497 95.2674595,43.0780505 C95.3255521,42.893955 95.3935478,42.7129353 95.4650025,42.5341846 C95.5419538,42.3417188 95.6566225,42.1746663 95.8131311,42.0469945 C95.9987808,41.8955228 96.2042842,41.8057693 96.44452,41.8689497 C96.7836457,41.958199 96.9803831,42.2523686 97,42.670378" id="Fill-31" fill="#2F5996"></path>
                <path d="M89,49.6742453 C88.9634577,49.8295711 88.9286789,50.0341418 88.8668117,50.2305451 C88.5914709,51.104655 88.3118196,51.9775638 88.0274167,52.8489352 C87.3094049,55.0482388 86.5451518,57.2322164 85.7543983,59.4073059 C85.64629,59.7047454 85.5256416,59.997957 85.4057281,60.2910726 C85.3645323,60.3918206 85.3183401,60.4934814 85.256228,60.5825547 C85.0838033,60.8299325 84.8271255,60.87764 84.5475231,60.8341603 C84.267235,60.7905365 84.042544,60.5814497 84.0057568,60.324415 C83.9908166,60.2201118 84.0067855,60.1065361 84.0326492,60.0028095 C84.0720326,59.844553 84.1289033,59.69014 84.1841086,59.5360634 C85.0757698,57.0491693 85.8834719,54.5349863 86.7214463,52.0306042 C86.984492,51.2443185 87.2510646,50.4591377 87.5185678,49.6742933 C87.5571675,49.561102 87.5969917,49.4445476 87.6601325,49.3439918 C87.7348825,49.2249872 87.8195274,49.1027636 87.9276847,49.0147953 C88.3833856,48.644185 88.8667137,48.9515696 88.9597349,49.3640741 C88.9787898,49.4487755 88.9826596,49.5367438 89,49.6742453" id="Fill-33" fill="#2F5996"></path>
                <path d="M96.6932349,60.8484848 C96.3516195,60.8451384 96.0940851,60.6694534 96.0183339,60.3714231 C95.9950107,60.2797843 95.9955007,60.1765165 96.0110331,60.0826673 C96.0304854,59.9654158 96.0716439,59.8506631 96.1122144,59.7378806 C97.1203521,56.9319656 98.0234377,54.0918843 98.9750804,51.2676608 C99.1528459,50.739981 99.3302193,50.2121089 99.5125905,49.6859669 C99.5588938,49.5524251 99.6160747,49.4212379 99.6816833,49.2957692 C99.7589534,49.1480516 99.8748831,49.0301273 100.021584,48.9438706 C100.389217,48.7275319 100.741269,48.9120589 100.880326,49.169868 C100.975725,49.3468025 101.025214,49.5387297 100.987093,49.7383456 C100.952353,49.9198932 100.906344,50.1004317 100.850927,50.2770778 C100.279118,52.0995218 99.6924629,53.9174006 99.0578874,55.7199503 C98.6010773,57.0175496 98.1408373,58.3140917 97.6756485,59.6088078 C97.5686855,59.9064056 97.4422212,60.1979966 97.311445,60.4865602 C97.1948783,60.7436966 96.9739455,60.8505685 96.6932349,60.8484848" id="Fill-35" fill="#2F5996"></path>
                <path d="M8.99545889,46.0002509 C8.97722705,46.0813855 8.95709109,46.1439167 8.94956986,46.2080549 C8.39537886,50.9473696 7.84209232,55.6867816 7.28994824,60.4263885 C7.28637803,60.4571184 7.29951639,60.4899423 7.30937015,60.5485288 C7.42414034,60.438174 7.43632664,60.3008392 7.47521807,60.1817184 C8.70246408,56.429071 9.92728236,52.6754984 11.1523863,48.9220718 C11.3645516,48.2720207 11.577193,47.6222131 11.7876447,46.9715289 C11.820443,46.8702324 11.8803272,46.7705429 11.8389604,46.660529 C11.5737656,46.5440867 9.3302013,46.0196336 8.99545889,46.0002509 L8.99545889,46.0002509 Z M7,61.8484848 C7.03284588,61.5968506 7.06826232,61.3455572 7.09815683,61.0935821 C7.18274689,60.3809025 7.26633728,59.6680767 7.34802357,58.9550562 C7.42218862,58.307781 7.49121258,57.6598727 7.5664725,57.0127437 C7.64173242,56.3656633 7.72398994,55.7193621 7.79944027,55.0723304 C7.8748906,54.4252014 7.94400976,53.7772931 8.01917448,53.130164 C8.09429159,52.4830836 8.1747402,51.836685 8.25052375,51.1896534 C8.30445765,50.7289976 8.35334565,50.2677574 8.40661311,49.8070042 C8.45864289,49.3573547 8.51395727,48.9080461 8.5667963,48.458494 C8.620873,47.9978869 8.67280758,47.5369876 8.72736031,47.0764293 C8.77282092,46.6926712 8.82032845,46.3092053 8.86859762,45.9257882 C8.87107296,45.9060646 8.88906679,45.8884351 8.90939316,45.8533222 C8.9624226,45.8533222 9.02768594,45.8412932 9.08718936,45.8551728 C10.0133005,46.0706228 10.9387452,46.2892382 11.8640471,46.5084868 C11.9045094,46.5180808 11.9420204,46.5406777 11.9704392,46.5527554 C12.0288001,46.6545876 11.9873382,46.7358196 11.9601094,46.8190484 C11.6932961,47.6360927 11.4273872,48.4533318 11.1607167,49.2703274 C9.86449436,53.2412493 8.56808157,57.2121225 7.27171639,61.1829471 C7.21702085,61.3505247 7.16575271,61.5195146 7.10472601,61.6847059 C7.08306677,61.7432436 7.03693972,61.7923334 7.00199931,61.8457576 L7,61.8484848 Z" id="Fill-37" fill="#2F5996"></path>
                <path d="M11.4070441,29.0158404 C11.3803266,29.1177014 11.3447531,29.2151874 11.3298271,29.3159161 C11.1693731,30.4012843 11.011954,31.4872186 10.8540373,32.5729986 C10.6306952,34.1093038 10.4069053,35.6456091 10.1856529,37.1822232 C10.1643585,37.3301507 10.1281382,37.4792621 10.1570945,37.6436603 C10.2314755,37.6766018 10.3000355,37.7162859 10.3736204,37.738161 C11.4264976,38.0514648 12.4798723,38.3631214 13.533844,38.6724619 C13.6065832,38.6938224 13.6849942,38.6944915 13.7666392,38.7055577 C13.8052975,38.6310278 13.8436572,38.5729171 13.8674392,38.5089901 C14.8536471,35.8593165 15.8386609,33.2090767 16.8222318,30.5583222 C16.8332273,30.5287264 16.8236249,30.4908952 16.8236249,30.4520861 C16.7975542,30.4312919 16.774419,30.3993284 16.7453134,30.3916077 C15.0171858,29.9317147 13.2886105,29.4736746 11.5596371,29.0172301 C11.51874,29.0064212 11.4728676,29.0158404 11.4070441,29.0158404 M11.2983334,28.8666776 C11.3453999,28.8592657 11.3809734,28.8427436 11.4105268,28.8505157 C13.234678,29.3302765 15.0584312,29.8117874 16.8816869,30.2950482 C16.9220367,30.3057542 16.957063,30.3380779 17,30.3636075 C16.9926365,30.4182182 16.9947759,30.4667039 16.9793027,30.5082409 C15.945282,33.2825258 14.9166346,36.0589209 13.8788824,38.8255366 C13.7305682,38.8780369 13.61529,38.8287792 13.4970764,38.793779 C12.727693,38.5656082 11.9577125,38.3397022 11.1880803,38.1125608 C10.9063279,38.0293837 10.6246253,37.9457434 10.3434202,37.860456 C10.2365006,37.8280808 10.1310238,37.7905585 10.0452493,37.7621465 C10.0240545,37.7298227 10.01689,37.7208668 10.0118152,37.7107785 C10.0066408,37.7004843 9.99873009,37.6883371 10.0001729,37.6782488 C10.4164579,34.8066839 10.83334,31.9351704 11.2512668,29.0638113 C11.2610682,28.9965388 11.2827109,28.9310677 11.2983334,28.8666776" id="Fill-39" fill="#2F5996"></path>
                <path d="M16.4895124,18.9866185 C16.3972218,18.9866185 16.3040658,18.9786438 16.2126915,18.9879048 C15.5581562,19.0541209 14.9823199,19.2910995 14.5345604,19.7959782 C13.9957829,20.4034482 13.9875363,21.2540708 14.5150638,21.8699785 C14.698016,22.0835474 14.9105949,22.2613071 15.1620651,22.3890574 C15.9617303,22.7951521 16.7791104,22.8230895 17.6091658,22.498543 C17.9594424,22.3615317 18.2582033,22.1447729 18.5014269,21.8531029 C19.0017204,21.2532476 19.0014149,20.4282985 18.4977618,19.8318389 C18.2615121,19.5520538 17.9750193,19.3395654 17.637418,19.1996215 C17.269681,19.0472266 16.8889632,18.9630544 16.4895124,18.9866185 M16.498828,18.8486297 C17.0676903,18.8433303 17.5958796,18.9833257 18.0775927,19.2917684 C18.3341534,19.4560482 18.55223,19.661488 18.7200635,19.9193038 C19.0992033,20.5015633 19.0930438,21.2195478 18.702654,21.794347 C18.4955729,22.0991882 18.2260823,22.3358067 17.9000364,22.497977 C16.9314688,22.9795489 15.9663117,22.9663262 15.013321,22.4494082 C14.777275,22.3213492 14.5764042,22.1455961 14.4054146,21.9364519 C13.8583396,21.2674992 13.8649573,20.3848233 14.4251657,19.7265207 C14.7679085,19.3236674 15.2091522,19.0822126 15.7110746,18.946539 C15.8222509,18.9164922 15.9357179,18.8904071 16.0497449,18.8772359 C16.1985908,18.8600516 16.3490657,18.8574791 16.498828,18.8486297" id="Fill-41" fill="#2F5996"></path>
                <path d="M8.86922858,45.8484848 C9.23597523,45.8684694 11.6940435,46.4092067 11.9845932,46.5292645 C12.029915,46.6426944 11.9643053,46.7454791 11.9283713,46.8499209 C11.6977986,47.5208088 11.4648269,48.1907928 11.2323767,48.8610279 C9.89014235,52.7309979 8.54822096,56.6011185 7.20363972,60.4702851 C7.16102994,60.5931046 7.14767852,60.7347036 7.02193533,60.8484848 C7.01113946,60.7880793 6.99674496,60.7542362 7.00065651,60.7225522 C7.60559029,55.8357811 8.21177577,50.9492109 8.81895217,46.0627412 C8.82719249,45.9966114 8.84925362,45.9321387 8.86922858,45.8484848" id="Fill-43" fill="#5C9DD5"></path>
                <path d="M11.3208877,29.8520158 C11.3898521,29.8520158 11.4379135,29.8432705 11.4807621,29.8533061 C13.2922369,30.2770944 15.1032947,30.7023641 16.9138833,31.1293542 C16.9443778,31.1365225 16.9686169,31.1661991 16.9959316,31.1855057 C16.9959316,31.2215382 17.0059922,31.2566627 16.9944721,31.2841411 C15.963968,33.7452481 14.9319523,36.2058772 13.8986856,38.6659806 C13.8737687,38.7253339 13.8335786,38.7792871 13.7930757,38.8484848 C13.7075349,38.8382103 13.6253823,38.8375891 13.5491722,38.8177569 C12.4449081,38.5305481 11.3412695,38.2411888 10.2381522,37.9503003 C10.1610559,37.9299902 10.0892246,37.8931452 10.0112943,37.8625606 C9.98095623,37.7099242 10.0189049,37.5714809 10.0412154,37.4341368 C10.2730253,36.0074594 10.5074938,34.5810687 10.7414931,33.154678 C10.9069451,32.1465799 11.0718758,31.1383385 11.2399862,30.1306227 C11.2556244,30.0371006 11.2928954,29.9465892 11.3208877,29.8520158" id="Fill-45" fill="#5C9DD5"></path>
                <path d="M16.4884602,18.8526788 C16.9088289,18.8274598 17.3094836,18.9175434 17.6964778,19.0806408 C18.0517582,19.2304129 18.3532537,19.4578243 18.601875,19.7572584 C19.1319027,20.395607 19.1322241,21.2784917 18.605732,21.9204745 C18.3497716,22.2326282 18.0353656,22.4646098 17.6667461,22.6112433 C16.7932235,22.9585825 15.93304,22.9286832 15.091499,22.4940687 C14.8268602,22.3573465 14.6031492,22.1671029 14.4106164,21.9385352 C13.855464,21.2793727 13.8641424,20.3690115 14.4311339,19.7188793 C14.9023412,19.1785433 15.5083321,18.9249218 16.1971432,18.8540554 C16.2933024,18.844144 16.3913367,18.8526788 16.4884602,18.8526788" id="Fill-47" fill="#5C9DD5"></path>
            </g>
        </g>
    </g>
</svg>