<?xml version="1.0" encoding="UTF-8"?>
<svg width="37px" height="10px" viewBox="0 0 37 10" version="1.1" xmlns="http://www.w3.org/2000/svg" xmlns:xlink="http://www.w3.org/1999/xlink">
    <!-- Generator: Sketch 59 (86127) - https://sketch.com -->
    <title>Fill 9 Copy</title>
    <desc>Created with Sketch.</desc>
    <g id="Page-1" stroke="none" stroke-width="1" fill="none" fill-rule="evenodd">
        <g id="Envol-LeGroupe" transform="translate(-761.000000, -2331.000000)" fill="#2F5996">
            <path d="M768.045868,2331 C768.590773,2331.97093 769.110197,2332.91387 769.626824,2333.85342 C769.581951,2333.98345 769.458968,2334.00071 769.36613,2334.05126 C768.598333,2334.46915 767.824597,2334.87684 767.061416,2335.30251 C766.578174,2335.57207 766.113981,2335.87328 765.682829,2336.21827 C765.536919,2336.335 765.394494,2336.4586 765.268026,2336.59444 C765.180244,2336.68886 765.110775,2336.80425 765.054512,2336.92007 C764.992407,2337.04791 765.0416,2337.15243 765.17936,2337.20875 C765.270922,2337.24618 765.369014,2337.27646 765.467057,2337.28962 C765.82,2337.33687 766.173091,2337.39672 766.528048,2337.41322 C767.407437,2337.45408 768.28766,2337.48388 769.167884,2337.49919 C770.304678,2337.51898 771.441865,2337.5329 772.578806,2337.52665 C774.228642,2337.51759 775.878429,2337.49103 777.528167,2337.46643 C778.453263,2337.4526 779.378262,2337.42881 780.303211,2337.40735 C781.217015,2337.38613 782.13082,2337.36315 783.044526,2337.33907 C783.746486,2337.32061 784.448446,2337.3004 785.150307,2337.27894 C786.57632,2337.23526 788.002381,2337.19182 789.428295,2337.14514 C790.597933,2337.1068 791.767474,2337.06503 792.936916,2337.02274 C794.150985,2336.97877 795.365005,2336.9329 796.578927,2336.8866 C796.957548,2336.87215 797.335972,2336.85227 797.714543,2336.83787 C797.791278,2336.83496 797.868603,2336.84545 797.961147,2336.85065 C797.974893,2336.91645 797.998557,2336.97725 797.998655,2337.03804 C798.000766,2338.01259 798,2338.98715 797.998901,2339.9617 C797.998852,2340.0038 797.9881,2340.04591 797.982994,2340.08315 C797.874985,2340.17894 797.748467,2340.16731 797.628627,2340.17398 C797.216965,2340.19678 796.805206,2340.21871 796.393348,2340.23755 C795.747651,2340.26701 795.101611,2340.29081 794.456012,2340.32233 C793.821656,2340.35332 793.187594,2340.39099 792.553435,2340.42556 C792.486666,2340.42923 792.419847,2340.43233 792.35298,2340.435 C791.629173,2340.46418 790.905268,2340.49194 790.181559,2340.5226 C789.157193,2340.56599 788.133023,2340.61291 787.108656,2340.65563 C786.028616,2340.70069 784.948527,2340.74614 783.868192,2340.785 C782.531582,2340.83301 781.194922,2340.87932 779.857968,2340.91732 C778.688085,2340.95065 777.517906,2340.98655 776.347679,2340.99433 C774.541917,2341.0063 772.735959,2340.99604 770.930099,2340.99323 C770.618002,2340.99275 770.305758,2340.98646 769.993809,2340.97602 C769.247565,2340.95103 768.500143,2340.94011 767.755569,2340.89057 C766.554805,2340.8106 765.358753,2340.68548 764.191177,2340.38036 C763.651672,2340.23936 763.12778,2340.05854 762.63683,2339.79595 C762.302886,2339.61742 761.989955,2339.40905 761.734563,2339.13201 C760.97855,2338.31205 760.806963,2337.3826 761.215826,2336.35879 C761.403663,2335.88849 761.716349,2335.49201 762.062517,2335.12084 C762.415117,2334.74285 762.801151,2334.39877 763.208001,2334.07724 C764.594983,2332.98105 766.07225,2332.01527 767.646775,2331.19107 C767.763326,2331.13008 767.884296,2331.07706 768.045868,2331" id="Fill-9-Copy"></path>
        </g>
    </g>
</svg>