<?xml version="1.0" encoding="UTF-8"?>
<svg width="100px" height="100px" viewBox="0 0 100 100" version="1.1" xmlns="http://www.w3.org/2000/svg" xmlns:xlink="http://www.w3.org/1999/xlink">
    <!-- Generator: Sketch 59 (86127) - https://sketch.com -->
    <title>yt</title>
    <desc>Created with Sketch.</desc>
    <g id="Page-1" stroke="none" stroke-width="1" fill="none" fill-rule="evenodd">
        <path d="M50,0 C22.3875,0 0,22.3875 0,50 C0,77.6125 22.3875,100 50,100 C77.6125,100 100,77.6125 100,50 C100,22.3875 77.6125,0 50,0 Z M68.5041667,70.3833333 C59.7458333,70.9833333 40.2375,70.9833333 31.4916667,70.3833333 C22.0083333,69.7333333 20.9041667,65.0916667 20.8333333,50 C20.9041667,34.8791667 22.0208333,30.2666667 31.4916667,29.6166667 C40.2375,29.0166667 59.75,29.0166667 68.5041667,29.6166667 C77.9916667,30.2666667 79.0916667,34.9083333 79.1666667,50 C79.0916667,65.1208333 77.9791667,69.7333333 68.5041667,70.3833333 Z M41.6666667,40.2416667 L62.1541667,49.9833333 L41.6666667,59.7583333 L41.6666667,40.2416667 L41.6666667,40.2416667 Z" id="yt" fill="#000000" fill-rule="nonzero"></path>
    </g>
</svg>