<?xml version="1.0" encoding="utf-8"?>
<!-- Generator: Adobe Illustrator 21.0.1, SVG Export Plug-In . SVG Version: 6.00 Build 0)  -->
<svg version="1.1" id="Calque_1" xmlns="http://www.w3.org/2000/svg" xmlns:xlink="http://www.w3.org/1999/xlink" x="0px" y="0px"
	 viewBox="0 0 23.6 47.1" style="enable-background:new 0 0 23.6 47.1;" xml:space="preserve">
<style type="text/css">
	.st0{fill:#232323;}
	.st1{fill:#CCCCCC;}
</style>
<polygon class="st0" points="11.7,0 23.6,11.4 22.2,12.9 11.7,2.8 1.4,13.1 0,11.7 "/>
<polygon class="st0" points="11.9,47.1 0,35.7 1.4,34.2 11.8,44.3 22.2,34 23.6,35.4 "/>
<rect x="2.7" y="23" class="st1" width="18.3" height="1.1"/>
</svg>
